Options for file formats • harpIO
…
#> Error: Cannot read from netcdf file: fc2018071000.nc

The error tells you what dimension names you have given - in this case (time, x, y) - the defaults from netcdf_opts(), and what dimensions it found in the file: (ensemble_member, height1, time, x, y). Note that in the warning the dimensions are listed in alphabetical order, it us up to you to decide which dimension they should go with.

So, now if we use our modified options to read the file, we should get a result:

read_grid(nc_file, "T2m", file_format_opts = my_nc_opts, data_frame = TRUE) %>%
  select(-ends_with("date"))

#> Reading fc2018071000.nc

#> # A tibble: 25 x 7
#>    lead_time parameter level_type level units gridded_data           members
#>        <dbl> <chr>     <chr>      <dbl> <chr> <geolist>                <int>
#>  1         0 T2m       height         2 K     <geofield [100 × 100]>       0
#>  2         0 T2m       height         2 K     <geofield [100 × 100]>       1
#>  3         0 T2m       height         2 K     <geofield [100 × 100]>       2
#>  4         0 T2m       height         2 K     <geofield [100 × 100]>       3
#>  5         0 T2m       height         2 K     <geofield [100 × 100]>       4
#>  6         3 T2m       height         2 K     <geofield [100 × 100]>       0
#>  7         3 T2m       height         2 K     <geofield [100 × 100]>       1
#>  8         3 T2m       height         2 K     <geofield [100 × 100]>       2
#>  9         3 T2m       height         2 K     <geofield [100 × 100]>       3
#> 10         3 T2m       height         2 K     <geofield [100 × 100]>       4
#> # … with 15 more rows
…
So, to change z_var to “hybrid” we use modify_opts():

read_grid(
  nc_file,
  "specific_humidity_ml",
  lead_time            = 3,
  file_format_opts     = modify_opts(my_nc_opts, z_var = "hybrid"),
  data_frame           = TRUE,
  vertical_coordinate = "model"
) %>%
  select(-ends_with("date"))

#> Reading fc2018071000.nc

#> # A tibble: 325 x 7
#>    lead_time parameter        level_type   level units gridded_data      members
#>        <dbl> <chr>            <chr>        <dbl> <chr> <geolist>           <int>
#>  1         3 specific_humidi… model      0.00987 kg/kg <geofield [100 ×…       0
#>  2         3 specific_humidi… model      0.00987 kg/kg <geofield [100 ×…       1
#>  3         3 specific_humidi… model      0.00987 kg/kg <geofield [100 ×…       2
#>  4         3 specific_humidi… model      0.00987 kg/kg <geofield [100 ×…       3
#>  5         3 specific_humidi… model      0.00987 kg/kg <geofield [100 ×…       4
#>  6         3 specific_humidi… model      0.0296  kg/kg <geofield [100 ×…       0
#>  7         3 specific_humidi… model      0.0296  kg/kg <geofield [100 ×…       1
#>  8         3 specific_humidi… model      0.0296  kg/kg <geofield [100 ×…       2
#>  9         3 specific_humidi… model      0.0296  kg/kg <geofield [100 ×…       3
#> 10         3 specific_humidi… model      0.0296  kg/kg <geofield [100 ×…       4
#> # … with 315 more rows
…
