Reading forecast model data • harpIO
…
The simplest application of read_forecast() is to read deterministic forecasts. At a minimum, the start date, end date, a name for the forecast model (fcst_model) and the parameter to be read in are needed as arguments. The data we will use are grib files from the AROME-Arctic model that come with harpData. By default the function looks in the current working directory for the files that have the “vfld” template (see show_file_templates()). Therefore, we need to also pass the file_path and file_template arguments. Finally, the default behaviour of read_forecast() is to not return any data - this is because one of its main roles is to write the data to output files in another format and the volumes of data involved could easily become too large to hold in memory - so we should also set return_data = TRUE.

library(harpIO)

read_forecast(
  2018071000,
  2018071000,
  "AROME_Arctic",
  "T2m",
  file_path     = system.file("grib/AROME_Arctic", package = "harpData"),
  file_template = "harmonie_grib_fp",
  return_data   = TRUE
)
#> ● AROME_Arctic
#> # A tibble: 17 x 9
#>    fcdate              lead_time parameter validdate           level_type level
#>    <dttm>                  <dbl> <chr>     <dttm>              <chr>      <int>
#>  1 2018-07-10 00:00:00         0 T2m       2018-07-10 00:00:00 height         2
#>  2 2018-07-10 00:00:00         3 T2m       2018-07-10 03:00:00 height         2
#>  3 2018-07-10 00:00:00         6 T2m       2018-07-10 06:00:00 height         2
#>  4 2018-07-10 00:00:00         9 T2m       2018-07-10 09:00:00 height         2
#>  5 2018-07-10 00:00:00        12 T2m       2018-07-10 12:00:00 height         2
#>  6 2018-07-10 00:00:00        15 T2m       2018-07-10 15:00:00 height         2
#>  7 2018-07-10 00:00:00        18 T2m       2018-07-10 18:00:00 height         2
#>  8 2018-07-10 00:00:00        21 T2m       2018-07-10 21:00:00 height         2
#>  9 2018-07-10 00:00:00        24 T2m       2018-07-11 00:00:00 height         2
#> 10 2018-07-10 00:00:00        27 T2m       2018-07-11 03:00:00 height         2
#> # … with 7 more rows, and 3 more variables: units <chr>, fcst_cycle <chr>,
#> #   AROME_Arctic_det <geolist>
…
read_forecast(
  2019021700,
  2019021718,
  "CMEPS_prod",
  "T2m",
  lead_time     = seq(0, 12, 3),
  members       = c(0, 1, 3, 4, 5, 6),
  lags          = c(0, 0, 2, 2, 1, 1),
  file_path     = system.file("vfld", package = "harpData"),
  file_template = "vfld_eps",
  return_data   = TRUE
)
#> ● CMEPS_prod
#> # A tibble: 22,980 x 15
#>    fcdate              lead_time parameter   SID   lat   lon units
#>    <dttm>                  <dbl> <chr>     <int> <dbl> <dbl> <chr>
#>  1 2019-02-17 00:00:00         0 T2m        1001  70.9 -8.67 K    
#>  2 2019-02-17 00:00:00         0 T2m        1010  69.3 16.1  K    
#>  3 2019-02-17 00:00:00         0 T2m        1014  69.2 17.9  K    
#>  4 2019-02-17 00:00:00         0 T2m        1015  69.6 17.8  K    
#>  5 2019-02-17 00:00:00         0 T2m        1018  69.2 16.0  K    
#>  6 2019-02-17 00:00:00         0 T2m        1023  69.1 18.5  K    
#>  7 2019-02-17 00:00:00         0 T2m        1025  69.7 18.9  K    
#>  8 2019-02-17 00:00:00         0 T2m        1026  69.7 18.9  K    
#>  9 2019-02-17 00:00:00         0 T2m        1027  69.7 18.9  K    
#> 10 2019-02-17 00:00:00         0 T2m        1033  70.2 19.5  K    
#> # … with 22,970 more rows, and 8 more variables: validdate <dttm>,
#> #   fcst_cycle <chr>, CMEPS_prod_mbr000 <dbl>, CMEPS_prod_mbr001 <dbl>,
#> #   CMEPS_prod_mbr003_lag2h <dbl>, CMEPS_prod_mbr004_lag2h <dbl>,
#> #   CMEPS_prod_mbr005_lag1h <dbl>, CMEPS_prod_mbr006_lag1h <dbl>
…
