Read observations from CSV files • harpIO
…
And then read the data back in using
read_point_obs()

read_point_obs(
  seq_dttm(2023112803, 2023112819), "T2m", 
  obs_path = file.path(tempdir(), "OBSTABLE"), stations = c(4, 6, 9)
)
#> Getting T2m.
#> 
#> Reading: /tmp/RtmpsHBatv/OBSTABLE/OBSTABLE_2023.sqlite
#> # A tibble: 51 × 5
#>    valid_dttm            SID  elev   T2m units
#>    <dttm>              <int> <dbl> <dbl> <chr>
#>  1 2023-11-28 03:00:00     4   147  10.2 degC 
#>  2 2023-11-28 03:00:00     6    52  23.5 degC 
#>  3 2023-11-28 03:00:00     9   338  12.9 degC 
#>  4 2023-11-28 04:00:00     4   147  10.2 degC 
#>  5 2023-11-28 04:00:00     6    52  23.5 degC 
#>  6 2023-11-28 04:00:00     9   338  12.9 degC 
#>  7 2023-11-28 05:00:00     4   147  10.2 degC 
#>  8 2023-11-28 05:00:00     6    52  23.5 degC 
#>  9 2023-11-28 05:00:00     9   338  12.9 degC 
#> 10 2023-11-28 06:00:00     4   147  10.2 degC 
#> # ℹ 41 more rows
…
