Transforming forecast model data • harpIO
…
read_forecast(
  2018071000,
  2018071000,
  "AROME_Arctic",
  "S10m",
  transformation = "interpolate",
  file_path      = system.file("grib/AROME_Arctic", package = "harpData"),
  file_template  = "harmonie_grib_fp",
  return_data    = TRUE
)
#> Warning: 'transformation_opts' not set for transformation = 'interpolate'. Using
#> default interpolate_opts()
#> ● AROME_Arctic
#> # A tibble: 119 x 12
#>    fcdate              lead_time parameter validdate           level_type level
#>    <dttm>                  <dbl> <chr>     <dttm>              <chr>      <int>
#>  1 2018-07-10 00:00:00         0 S10m      2018-07-10 00:00:00 height        10
#>  2 2018-07-10 00:00:00         0 S10m      2018-07-10 00:00:00 height        10
#>  3 2018-07-10 00:00:00         0 S10m      2018-07-10 00:00:00 height        10
#>  4 2018-07-10 00:00:00         0 S10m      2018-07-10 00:00:00 height        10
#>  5 2018-07-10 00:00:00         0 S10m      2018-07-10 00:00:00 height        10
#>  6 2018-07-10 00:00:00         0 S10m      2018-07-10 00:00:00 height        10
#>  7 2018-07-10 00:00:00         0 S10m      2018-07-10 00:00:00 height        10
#>  8 2018-07-10 00:00:00         3 S10m      2018-07-10 03:00:00 height        10
#>  9 2018-07-10 00:00:00         3 S10m      2018-07-10 03:00:00 height        10
#> 10 2018-07-10 00:00:00         3 S10m      2018-07-10 03:00:00 height        10
#> # … with 109 more rows, and 6 more variables: units <chr>, SID <int>,
#> #   lat <dbl>, lon <dbl>, fcst_cycle <chr>, AROME_Arctic_det <dbl>

You will see a warning and a couple of messages. The warning states that read_forecast() did not receive any options for the interpolation so it is using the default options with the default station list. Furthermore, you will see that interpolate weights are being derived from ‘sfc_geo’ - this is the default behaviour so that if corrections are to be made for 2m temperature for elevation differences between the model and reality.

Interpolate options

Options for interpolation are set using the interpolate_opts() function and passed to read_forecast() via the transformation_opts argument. You can see options are available and their defaults by running interpolate_opts

interpolate_opts()
#> No stations specified. Using default stations: 'station_list'
#> $stations
#> # A tibble: 13,417 x 5
#>      SID   lat   lon  elev name         
#>    <int> <dbl> <dbl> <dbl> <chr>        
#>  1  1001  70.9 -8.67   9.4 JAN MAYEN    
#>  2  1002  80.1 16.2    8   VERLEGENHUKEN
#>  3  1003  77   15.5   11.1 HORNSUND     
#>  4  1004  78.9 11.9    8   NY-ALESUND II
#>  5  1006  78.3 22.8   14   EDGEOYA      
#>  6  1007  78.9 11.9    7.7 NY-ALESUND   
#>  7  1008  78.2 15.5   26.8 SVALBARD AP  
#>  8  1009  80.7 25.0    5   KARL XII OYA 
#>  9  1010  69.3 16.1   13.1 ANDOYA       
#> 10  1011  80.1 31.5   10   KVITOYA      
#> # … with 13,407 more rows
…
To show the effect of the correction to 2m temperature, we can just show the relevant columns using the select method from the dplyr package.

library(dplyr)
select(t2m$AROME_Arctic, SID, lead_time, parameter, AROME_Arctic_det)
#> # A tibble: 102 x 4
#>      SID lead_time parameter       AROME_Arctic_det
#>    <dbl>     <dbl> <chr>                      <dbl>
#>  1  1003         0 T2m                         276.
#>  2  1004         0 T2m                         276.
#>  3  1006         0 T2m                         276.
#>  4  1003         0 T2m_uncorrected             277.
#>  5  1004         0 T2m_uncorrected             277.
#>  6  1006         0 T2m_uncorrected             278.
#>  7  1003         3 T2m                         277.
#>  8  1004         3 T2m                         276.
#>  9  1006         3 T2m                         276.
#> 10  1003         3 T2m_uncorrected             277.
#> # … with 92 more rows
…
