Writing forecast model data • harpIO
…
With the default template, you get a directory for each forecast model and under that a directory for each year and then month. Each file contains the data for one parameter for one forecast cycle for each month.

You can then read in those data again using read_point_forecast(). Here you have to tell the function whether you are reading ensemble (“eps”) or deterministic (“det”) data.

read_point_forecast(
  start_date = 2019021700,
  end_date   = 2019021718,
  fcst_model = "MEPS_prod",
  fcst_type  = "eps",
  parameter  = "T2m",
  lead_time  = seq(0, 12, 3),
  file_path  = file.path(tempdir(), "FCTABLE")
)
#> ● MEPS_prod
#> # A tibble: 22,980 x 13
#>    fcdate fcst_cycle leadtime model_elevation     p parameter   SID units
#>     <int> <chr>         <int>           <dbl> <dbl> <chr>     <int> <chr>
#>  1 1.55e9 00                0            36.4    NA T2m        1001 K    
#>  2 1.55e9 00                0             4.1    NA T2m        1010 K    
#>  3 1.55e9 00                0            29.1    NA T2m        1014 K    
#>  4 1.55e9 00                0             2.6    NA T2m        1015 K    
#>  5 1.55e9 00                0           152.     NA T2m        1018 K    
#>  6 1.55e9 00                0            69.1    NA T2m        1023 K    
#>  7 1.55e9 00                0             8.1    NA T2m        1025 K    
#>  8 1.55e9 00                0             5.2    NA T2m        1026 K    
#>  9 1.55e9 00                0             5.2    NA T2m        1027 K    
#> 10 1.55e9 00                0            28.5    NA T2m        1033 K    
#> # … with 22,970 more rows, and 5 more variables: validdate <int>,
#> #   MEPS_prod_mbr000 <dbl>, MEPS_prod_mbr001 <dbl>, MEPS_prod_mbr002 <dbl>,
#> #   MEPS_prod_mbr003 <dbl>

By default, all members that are found are read in, but you call also select which members you want with the members argument:

read_point_forecast(
  start_date = 2019021700,
  end_date   = 2019021718,
  fcst_model = "MEPS_prod",
  fcst_type  = "eps",
  parameter  = "T2m",
  lead_time  = seq(0, 12, 3),
  members    = c(0, 2),
  file_path  = file.path(tempdir(), "FCTABLE")
)
#> ● MEPS_prod
#> # A tibble: 22,980 x 10
#>    fcdate fcst_cycle leadtime model_elevation parameter   SID units validdate
#>     <int> <chr>         <int>           <dbl> <chr>     <int> <chr>     <int>
#>  1 1.55e9 00                0            36.4 T2m        1001 K        1.55e9
#>  2 1.55e9 00                0             4.1 T2m        1010 K        1.55e9
#>  3 1.55e9 00                0            29.1 T2m        1014 K        1.55e9
#>  4 1.55e9 00                0             2.6 T2m        1015 K        1.55e9
#>  5 1.55e9 00                0           152.  T2m        1018 K        1.55e9
#>  6 1.55e9 00                0            69.1 T2m        1023 K        1.55e9
#>  7 1.55e9 00                0             8.1 T2m        1025 K        1.55e9
#>  8 1.55e9 00                0             5.2 T2m        1026 K        1.55e9
#>  9 1.55e9 00                0             5.2 T2m        1027 K        1.55e9
#> 10 1.55e9 00                0            28.5 T2m        1033 K        1.55e9
#> # … with 22,970 more rows, and 2 more variables: MEPS_prod_mbr000 <dbl>,
#> #   MEPS_prod_mbr002 <dbl>
…
