Generate Transformation Options — interpolate_opts • harpIO
…
xsection_opts generates options to extract a vertical cross section
from three dimensional gridded data. a and b denote the left
and right hand extents of the vertical cross section. By defualt the cross
sections are interpolated horizontally to a 2.5 km grid length. In the
vertical, if data are on model levels or pressure levels, these are converted
to log(pressure) and by default interpolated to to log(10) hPa levels. The
default interpolation method is bilinear interpolation.

    Examples

interpolate_opts()
#> No stations specified. Using default stations: 'station_list'
#> $stations
#> # A tibble: 13,417 × 5
#>      SID   lat   lon  elev name         
#>    <int> <dbl> <dbl> <dbl> <chr>        
#>  1  1001  70.9 -8.67   9.4 JAN MAYEN    
#>  2  1002  80.1 16.2    8   VERLEGENHUKEN
#>  3  1003  77   15.5   11.1 HORNSUND     
#>  4  1004  78.9 11.9    8   NY-ALESUND II
#>  5  1006  78.3 22.8   14   EDGEOYA      
#>  6  1007  78.9 11.9    7.7 NY-ALESUND   
#>  7  1008  78.2 15.5   26.8 SVALBARD AP  
#>  8  1009  80.7 25.0    5   KARL XII OYA 
#>  9  1010  69.3 16.1   13.1 ANDOYA       
#> 10  1011  80.1 31.5   10   KVITOYA      
#> # ℹ 13,407 more rows
…
