Read point observations from OBSTABLE files — read_point_obs • harpIO
…
#> Getting T2m.
#> 
#> Reading: /home/andrewts/R/x86_64-pc-linux-gnu-library/4.3/harpData/OBSTABLE/OBSTABLE_2019.sqlite
#> Warning: 142 observations removed due to gross error check.
#> Getting T2m.
#> 
#> Reading: /home/andrewts/R/x86_64-pc-linux-gnu-library/4.3/harpData/OBSTABLE/OBSTABLE_2019.sqlite
#> Getting T2m.
#> 
#> Reading: /home/andrewts/R/x86_64-pc-linux-gnu-library/4.3/harpData/OBSTABLE/OBSTABLE_2019.sqlite
#> Warning: 147549 observations removed due to gross error check.
#> Getting Z.
#> 
#> Reading: /home/andrewts/R/x86_64-pc-linux-gnu-library/4.3/harpData/OBSTABLE/OBSTABLE_2019.sqlite
#> # A tibble: 96,710 × 8
#>    valid_dttm            SID   lon   lat  elev     p     Z units
#>    <dttm>              <int> <dbl> <dbl> <dbl> <dbl> <dbl> <chr>
#>  1 2019-02-17 00:00:00  1001 -8.67  70.9     9    50 19846 m    
#>  2 2019-02-17 00:00:00  1001 -8.67  70.9     9   100 15597 m    
#>  3 2019-02-17 00:00:00  1001 -8.67  70.9     9   150 13048 m    
#>  4 2019-02-17 00:00:00  1001 -8.67  70.9     9   200 11220 m    
#>  5 2019-02-17 00:00:00  1001 -8.67  70.9     9   300  8656 m    
#>  6 2019-02-17 00:00:00  1001 -8.67  70.9     9   400  6762 m    
#>  7 2019-02-17 00:00:00  1001 -8.67  70.9     9   500  5224 m    
#>  8 2019-02-17 00:00:00  1001 -8.67  70.9     9   700  2792 m    
#>  9 2019-02-17 00:00:00  1001 -8.67  70.9     9   850  1322 m    
#> 10 2019-02-17 00:00:00  1001 -8.67  70.9     9   925   672 m    
#> # ℹ 96,700 more rows
…
